[{
    "NomeModello": "Zoe L",
    "GenereModello": "executive",
    "CodiceModello": "444",
    "colore": "Caldi",
    "BraccioliDisponibili": {
        "braccioli": "",
        "braccioli1": ""
    }
}, {
    "NomeModello": "Zoe M",
    "GenereModello": "executive",
    "CodiceModello": "446",
    "colore": "red",
    "BraccioliDisponibili": {
        "braccioli": "",
        "braccioli1": ""
    }
}, {
    "NomeModello": "Zoe L",
    "GenereModello": "executive",
    "CodiceModello": "444",
    "colore": "black",
    "BraccioliDisponibili": {
        "braccioli": "",
        "braccioli1": ""
    }
}, {
    "NomeModello": "provA",
    "GenereModello": "132",
    "CodiceModello": "145",
    "colore": "QINJI",
    "BraccioliDisponibili": {
        "braccioli": ["11", "12", "13"]
    }
}, {
    "NomeModello": "provA",
    "GenereModello": "132",
    "CodiceModello": "145",
    "colore": "QINJI",
    "BraccioliDisponibili": {
        "braccioli": ["11", "12", "13"]
    }
}, {
    "NomeModello": "Lol",
    "GenereModello": "dslqoij",
    "CodiceModello": "wdinfqp",
    "colore": "dinfqpi",
    "BraccioliDisponibili": {
        "braccioli": ["11", "12"]
    },
    "materiali": {
        "materiali": ["11", "12"]
    }
}]