# 3ds Max Wavefront OBJ Exporter v0.97b - (c)2007 guruware
# File Created: 13.07.2018 17:55:27

newmtl wire_225087143
	Ns 32
	d 1
	Tr 0
	Tf 1 1 1
	illum 2
	Ka 0.8824 0.3412 0.5608
	Kd 0.8824 0.3412 0.5608
	Ks 0.3500 0.3500 0.3500

newmtl wire_228214153
	Ns 32
	d 1
	Tr 0
	Tf 1 1 1
	illum 2
	Ka 0.8941 0.8392 0.6000
	Kd 0.8941 0.8392 0.6000
	Ks 0.3500 0.3500 0.3500
