# 3ds Max Wavefront OBJ Exporter v0.97b - (c)2007 guruware
# File Created: 13.07.2018 18:39:18

newmtl wire_008110135
	Ns 32
	d 1
	Tr 0
	Tf 1 1 1
	illum 2
	Ka 0.0314 0.4314 0.5294
	Kd 0.0314 0.4314 0.5294
	Ks 0.3500 0.3500 0.3500

newmtl wire_088199225
	Ns 32
	d 1
	Tr 0
	Tf 1 1 1
	illum 2
	Ka 0.3451 0.7804 0.8824
	Kd 0.3451 0.7804 0.8824
	Ks 0.3500 0.3500 0.3500

newmtl wire_027177088
	Ns 32
	d 1
	Tr 0
	Tf 1 1 1
	illum 2
	Ka 0.1059 0.6941 0.3451
	Kd 0.1059 0.6941 0.3451
	Ks 0.3500 0.3500 0.3500

newmtl wire_140088225
	Ns 32
	d 1
	Tr 0
	Tf 1 1 1
	illum 2
	Ka 0.5490 0.3451 0.8824
	Kd 0.5490 0.3451 0.8824
	Ks 0.3500 0.3500 0.3500

newmtl wire_228153184
	Ns 32
	d 1
	Tr 0
	Tf 1 1 1
	illum 2
	Ka 0.8941 0.6000 0.7216
	Kd 0.8941 0.6000 0.7216
	Ks 0.3500 0.3500 0.3500

newmtl wire_028149177
	Ns 32
	d 1
	Tr 0
	Tf 1 1 1
	illum 2
	Ka 0.1098 0.5843 0.6941
	Kd 0.1098 0.5843 0.6941
	Ks 0.3500 0.3500 0.3500

newmtl wire_006135058
	Ns 32
	d 1
	Tr 0
	Tf 1 1 1
	illum 2
	Ka 0.0235 0.5294 0.2275
	Kd 0.0235 0.5294 0.2275
	Ks 0.3500 0.3500 0.3500
