# 3ds Max Wavefront OBJ Exporter v0.97b - (c)2007 guruware
# File Created: 13.07.2018 18:36:53

newmtl wire_008008136
	Ns 32
	d 1
	Tr 0
	Tf 1 1 1
	illum 2
	Ka 0.0314 0.0314 0.5333
	Kd 0.0314 0.0314 0.5333
	Ks 0.3500 0.3500 0.3500

newmtl wire_177148027
	Ns 32
	d 1
	Tr 0
	Tf 1 1 1
	illum 2
	Ka 0.6941 0.5804 0.1059
	Kd 0.6941 0.5804 0.1059
	Ks 0.3500 0.3500 0.3500

newmtl wire_028149177
	Ns 32
	d 1
	Tr 0
	Tf 1 1 1
	illum 2
	Ka 0.1098 0.5843 0.6941
	Kd 0.1098 0.5843 0.6941
	Ks 0.3500 0.3500 0.3500

newmtl wire_228214153
	Ns 32
	d 1
	Tr 0
	Tf 1 1 1
	illum 2
	Ka 0.8941 0.8392 0.6000
	Kd 0.8941 0.8392 0.6000
	Ks 0.3500 0.3500 0.3500

newmtl wire_088199225
	Ns 32
	d 1
	Tr 0
	Tf 1 1 1
	illum 2
	Ka 0.3451 0.7804 0.8824
	Kd 0.3451 0.7804 0.8824
	Ks 0.3500 0.3500 0.3500

newmtl wire_229166215
	Ns 32
	d 1
	Tr 0
	Tf 1 1 1
	illum 2
	Ka 0.8980 0.6510 0.8431
	Kd 0.8980 0.6510 0.8431
	Ks 0.3500 0.3500 0.3500

newmtl wire_227153153
	Ns 32
	d 1
	Tr 0
	Tf 1 1 1
	illum 2
	Ka 0.8902 0.6000 0.6000
	Kd 0.8902 0.6000 0.6000
	Ks 0.3500 0.3500 0.3500

newmtl wire_228153184
	Ns 32
	d 1
	Tr 0
	Tf 1 1 1
	illum 2
	Ka 0.8941 0.6000 0.7216
	Kd 0.8941 0.6000 0.7216
	Ks 0.3500 0.3500 0.3500

newmtl wire_006135006
	Ns 32
	d 1
	Tr 0
	Tf 1 1 1
	illum 2
	Ka 0.0235 0.5294 0.0235
	Kd 0.0235 0.5294 0.0235
	Ks 0.3500 0.3500 0.3500

newmtl wire_135006006
	Ns 32
	d 1
	Tr 0
	Tf 1 1 1
	illum 2
	Ka 0.5294 0.0235 0.0235
	Kd 0.5294 0.0235 0.0235
	Ks 0.3500 0.3500 0.3500

newmtl wire_085028177
	Ns 32
	d 1
	Tr 0
	Tf 1 1 1
	illum 2
	Ka 0.3333 0.1098 0.6941
	Kd 0.3333 0.1098 0.6941
	Ks 0.3500 0.3500 0.3500

newmtl wire_113135006
	Ns 32
	d 1
	Tr 0
	Tf 1 1 1
	illum 2
	Ka 0.4431 0.5294 0.0235
	Kd 0.4431 0.5294 0.0235
	Ks 0.3500 0.3500 0.3500

newmtl wire_087225087
	Ns 32
	d 1
	Tr 0
	Tf 1 1 1
	illum 2
	Ka 0.3412 0.8824 0.3412
	Kd 0.3412 0.8824 0.3412
	Ks 0.3500 0.3500 0.3500

newmtl wire_177027088
	Ns 32
	d 1
	Tr 0
	Tf 1 1 1
	illum 2
	Ka 0.6941 0.1059 0.3451
	Kd 0.6941 0.1059 0.3451
	Ks 0.3500 0.3500 0.3500

newmtl wire_154185229
	Ns 32
	d 1
	Tr 0
	Tf 1 1 1
	illum 2
	Ka 0.6039 0.7255 0.8980
	Kd 0.6039 0.7255 0.8980
	Ks 0.3500 0.3500 0.3500
